<?xml version="1.0" encoding="UTF-8" standalone="no"?>
<!-- Created with Inkscape (http://www.inkscape.org/) -->

<svg
   xmlns:dc="http://purl.org/dc/elements/1.1/"
   xmlns:cc="http://creativecommons.org/ns#"
   xmlns:rdf="http://www.w3.org/1999/02/22-rdf-syntax-ns#"
   xmlns:svg="http://www.w3.org/2000/svg"
   xmlns="http://www.w3.org/2000/svg"
   xmlns:sodipodi="http://sodipodi.sourceforge.net/DTD/sodipodi-0.dtd"
   xmlns:inkscape="http://www.inkscape.org/namespaces/inkscape"
   width="118.71908mm"
   height="118.71908mm"
   viewBox="0 0 118.71908 118.71908"
   version="1.1"
   id="svg8"
   inkscape:version="0.92.3 (2405546, 2018-03-11)"
   sodipodi:docname="allgo-logo.svg">
  <defs
     id="defs2" />
  <sodipodi:namedview
     id="base"
     pagecolor="#ffffff"
     bordercolor="#666666"
     borderopacity="1.0"
     inkscape:pageopacity="0.0"
     inkscape:pageshadow="2"
     inkscape:zoom="0.91129566"
     inkscape:cx="0.49391562"
     inkscape:cy="74.568709"
     inkscape:document-units="mm"
     inkscape:current-layer="layer1"
     showgrid="false"
     inkscape:window-width="1920"
     inkscape:window-height="1136"
     inkscape:window-x="0"
     inkscape:window-y="27"
     inkscape:window-maximized="1"
     fit-margin-top="0"
     fit-margin-left="0"
     fit-margin-right="0"
     fit-margin-bottom="0">
    <inkscape:grid
       type="xygrid"
       id="grid4543"
       originx="-75.878841"
       originy="-108.75301" />
  </sodipodi:namedview>
  <metadata
     id="metadata5">
    <rdf:RDF>
      <cc:Work
         rdf:about="">
        <dc:format>image/svg+xml</dc:format>
        <dc:type
           rdf:resource="http://purl.org/dc/dcmitype/StillImage" />
        <dc:title></dc:title>
      </cc:Work>
    </rdf:RDF>
  </metadata>
  <g
     inkscape:label="Layer 1"
     inkscape:groupmode="layer"
     id="layer1"
     transform="translate(-75.878838,-69.527924)">
    <flowRoot
       xml:space="preserve"
       id="flowRoot838"
       style="font-style:normal;font-weight:normal;font-size:40px;line-height:1.25;font-family:sans-serif;letter-spacing:0px;word-spacing:0px;fill:#000000;fill-opacity:1;stroke:none"><flowRegion
         id="flowRegion840"><rect
           id="rect842"
           width="62.857143"
           height="442.85715"
           x="-185.71428"
           y="42.519684" /></flowRegion><flowPara
         id="flowPara844" /></flowRoot>    <path
       inkscape:connector-curvature="0"
       style="font-style:normal;font-variant:normal;font-weight:500;font-stretch:normal;font-size:115.57705688px;line-height:1.25;font-family:Orbitron;-inkscape-font-specification:'Orbitron, Medium';font-variant-ligatures:normal;font-variant-caps:normal;font-variant-numeric:normal;font-feature-settings:normal;text-align:start;letter-spacing:0px;word-spacing:0px;writing-mode:lr-tb;text-anchor:start;fill:#000000;fill-opacity:1;stroke:#000000;stroke-width:2.88941789;stroke-opacity:1"
       d="m 113.94718,87.279666 c -4.16078,0 -7.705,1.464027 -10.63295,4.39198 -2.92795,2.927955 -4.391977,6.472165 -4.391977,10.632944 v 68.19067 H 111.40469 V 141.3699 h 12.49433 v -12.48244 h -12.49433 v -26.58287 c 0,-0.69346 0.2312,-1.27143 0.6935,-1.73375 0.53936,-0.53936 1.15553,-0.808729 1.84899,-0.808729 h 9.95184 V 87.279666 Z"
       id="path4549" />
    <path
       style="font-style:normal;font-variant:normal;font-weight:500;font-stretch:normal;font-size:115.57705688px;line-height:1.25;font-family:Orbitron;-inkscape-font-specification:'Orbitron, Medium';font-variant-ligatures:normal;font-variant-caps:normal;font-variant-numeric:normal;font-feature-settings:normal;text-align:start;letter-spacing:0px;word-spacing:0px;writing-mode:lr-tb;text-anchor:start;fill:#000000;fill-opacity:1;stroke:#000000;stroke-width:2.88941789;stroke-opacity:1"
       d="m 146.57773,87.279666 v 12.482445 h 9.95185 c 0.69346,0 1.27144,0.269369 1.73375,0.808729 0.53935,0.46232 0.80873,1.04029 0.80873,1.73375 v 26.58287 h -12.49433 v 12.48244 h 12.49433 v 29.12536 h 12.48244 v -68.19067 c 0,-4.160779 -1.46402,-7.704989 -4.39198,-10.632944 -2.92795,-2.927953 -6.47217,-4.39198 -10.63294,-4.39198 z"
       id="path4537"
       inkscape:connector-curvature="0" />
    <rect
       style="fill:#000000;fill-opacity:1;stroke:#000000;stroke-width:0.26458332;stroke-opacity:1"
       id="rect4545"
       width="7.9375"
       height="93.927086"
       x="123.76653"
       y="81.92392" />
    <rect
       y="81.92392"
       x="138.70607"
       height="93.927086"
       width="7.9375"
       id="rect4551"
       style="fill:#000000;fill-opacity:1;stroke:#000000;stroke-width:0.26458332;stroke-opacity:1" />
    <rect
       style="fill:none;fill-opacity:1;stroke:#000000;stroke-width:4;stroke-miterlimit:4;stroke-dasharray:none;stroke-opacity:1"
       id="rect4565"
       width="114.71908"
       height="114.71908"
       x="77.878838"
       y="71.527924"
       ry="10.616675" />
  </g>
</svg>
