<?xml version="1.0" encoding="UTF-8" standalone="no"?>
<!-- Created with Inkscape (http://www.inkscape.org/) -->

<svg
   xmlns:dc="http://purl.org/dc/elements/1.1/"
   xmlns:cc="http://creativecommons.org/ns#"
   xmlns:rdf="http://www.w3.org/1999/02/22-rdf-syntax-ns#"
   xmlns:svg="http://www.w3.org/2000/svg"
   xmlns="http://www.w3.org/2000/svg"
   xmlns:sodipodi="http://sodipodi.sourceforge.net/DTD/sodipodi-0.dtd"
   xmlns:inkscape="http://www.inkscape.org/namespaces/inkscape"
   width="856.14905mm"
   height="862.43396mm"
   viewBox="0 0 856.14905 862.43396"
   version="1.1"
   id="svg8"
   inkscape:version="0.92.3 (2405546, 2018-03-11)"
   sodipodi:docname="allgo-visual.svg"
   inkscape:export-filename="/home/mberjon/repo/allgo/django/allgo/static/images/allgo-visual.png"
   inkscape:export-xdpi="14.83"
   inkscape:export-ydpi="14.83">
  <defs
     id="defs2">
    <marker
       inkscape:isstock="true"
       style="overflow:visible"
       id="marker2955"
       refX="0"
       refY="0"
       orient="auto"
       inkscape:stockid="Arrow1Mend">
      <path
         transform="matrix(-0.4,0,0,-0.4,-4,0)"
         style="fill:#000000;fill-opacity:1;fill-rule:evenodd;stroke:#000000;stroke-width:1.00000003pt;stroke-opacity:1"
         d="M 0,0 5,-5 -12.5,0 5,5 Z"
         id="path2953"
         inkscape:connector-curvature="0" />
    </marker>
    <marker
       inkscape:stockid="Arrow2Lend"
       orient="auto"
       refY="0"
       refX="0"
       id="Arrow2Lend"
       style="overflow:visible"
       inkscape:isstock="true">
      <path
         id="path922"
         style="fill:#000000;fill-opacity:1;fill-rule:evenodd;stroke:#000000;stroke-width:0.625;stroke-linejoin:round;stroke-opacity:1"
         d="M 8.7185878,4.0337352 -2.2072895,0.01601326 8.7185884,-4.0017078 c -1.7454984,2.3720609 -1.7354408,5.6174519 -6e-7,8.035443 z"
         transform="matrix(-1.1,0,0,-1.1,-1.1,0)"
         inkscape:connector-curvature="0" />
    </marker>
    <marker
       inkscape:stockid="Arrow1Mend"
       orient="auto"
       refY="0"
       refX="0"
       id="Arrow1Mend"
       style="overflow:visible"
       inkscape:isstock="true">
      <path
         id="path910"
         d="M 0,0 5,-5 -12.5,0 5,5 Z"
         style="fill:#000000;fill-opacity:1;fill-rule:evenodd;stroke:#000000;stroke-width:1.00000003pt;stroke-opacity:1"
         transform="matrix(-0.4,0,0,-0.4,-4,0)"
         inkscape:connector-curvature="0" />
    </marker>
    <marker
       inkscape:stockid="Arrow1Lend"
       orient="auto"
       refY="0"
       refX="0"
       id="Arrow1Lend"
       style="overflow:visible"
       inkscape:isstock="true">
      <path
         id="path904"
         d="M 0,0 5,-5 -12.5,0 5,5 Z"
         style="fill:#000000;fill-opacity:1;fill-rule:evenodd;stroke:#000000;stroke-width:1.00000003pt;stroke-opacity:1"
         transform="matrix(-0.8,0,0,-0.8,-10,0)"
         inkscape:connector-curvature="0" />
    </marker>
    <inkscape:path-effect
       effect="spiro"
       id="path-effect897"
       is_visible="true" />
    <inkscape:path-effect
       effect="spiro"
       id="path-effect893"
       is_visible="true" />
  </defs>
  <sodipodi:namedview
     id="base"
     pagecolor="#2b3137"
     bordercolor="#666666"
     borderopacity="1.0"
     inkscape:pageopacity="0"
     inkscape:pageshadow="2"
     inkscape:zoom="0.21045547"
     inkscape:cx="1353.4812"
     inkscape:cy="1366.7201"
     inkscape:document-units="mm"
     inkscape:current-layer="layer1"
     showgrid="false"
     inkscape:window-width="1920"
     inkscape:window-height="1136"
     inkscape:window-x="0"
     inkscape:window-y="27"
     inkscape:window-maximized="1"
     fit-margin-top="0"
     fit-margin-left="0"
     fit-margin-right="0"
     fit-margin-bottom="0" />
  <metadata
     id="metadata5">
    <rdf:RDF>
      <cc:Work
         rdf:about="">
        <dc:format>image/svg+xml</dc:format>
        <dc:type
           rdf:resource="http://purl.org/dc/dcmitype/StillImage" />
        <dc:title></dc:title>
      </cc:Work>
    </rdf:RDF>
  </metadata>
  <g
     inkscape:label="Layer 1"
     inkscape:groupmode="layer"
     id="layer1"
     transform="translate(663.68843,801.11027)">
    <path
       id="path833"
       d="m -604.28947,-396.75977 v -35.98333 h -52.91667 c -3.51896,0 -6.35,2.83105 -6.35,6.35 v 122.76669 c 0,3.51893 2.83104,6.34998 6.35,6.34998 h 88.9 c 3.51896,0 6.35,-2.83105 6.35,-6.34998 v -86.78335 h -35.98333 c -3.4925,0 -6.35,-2.8575 -6.35,-6.35001 z m 17.24554,57.15265 h -17.24554 v 21.16668 c 0,2.33891 -1.89442,4.23333 -4.23333,4.23333 h -8.46667 c -2.33892,0 -4.23333,-1.89442 -4.23333,-4.23333 v -21.16668 h -17.24555 c -3.77825,0 -5.66473,-4.57463 -2.98185,-7.23899 l 25.51112,-25.32063 c 1.75948,-1.74889 4.60111,-1.74889 6.36059,0 l 25.51112,25.32063 c 2.68552,2.66436 0.80169,7.23899 -2.97656,7.23899 z m 23.23571,-65.35473 -25.90271,-25.92917 c -1.19062,-1.19062 -2.80458,-1.85208 -4.49792,-1.85208 h -1.61395 v 33.86667 h 33.86666 v -1.61395 c 0,-1.66688 -0.66146,-3.28085 -1.85208,-4.47147 z"
       inkscape:connector-curvature="0"
       style="fill:#ffffff;stroke:#000000;stroke-width:0.26458332;stroke-opacity:1;fill-opacity:0.94117647" />
    <path
       id="path855"
       d="m 114.0117,-432.74309 h 21.16666 c 3.51896,0 6.34999,2.83105 6.34999,6.35 v 44.45 h 23.20395 c 4.70958,0 7.06437,5.68854 3.73062,9.02229 l -40.2431,40.26958 c -1.98438,1.98438 -5.23874,1.98438 -7.22312,0 L 80.70068,-372.9208 c -3.33375,-3.33375 -0.97896,-9.02229 3.73063,-9.02229 h 23.2304 v -44.45 c 0,-3.51895 2.83103,-6.35 6.34999,-6.35 z m 78.31664,99.48332 v 29.63333 c 0,3.51896 -2.83105,6.35001 -6.35,6.35001 H 63.21173 c -3.51896,0 -6.35,-2.83105 -6.35,-6.35001 v -29.63333 c 0,-3.51895 2.83104,-6.35001 6.35,-6.35001 h 38.81436 l 12.96457,12.96459 c 5.31813,5.31813 13.89062,5.31813 19.20874,0 l 12.96457,-12.96459 h 38.81437 c 3.51895,0 6.35,2.83103 6.35,6.35001 z m -32.80833,23.28335 c 0,-2.91042 -2.38125,-5.29168 -5.29166,-5.29168 -2.91042,0 -5.29167,2.38126 -5.29167,5.29168 0,2.91041 2.38125,5.29165 5.29167,5.29165 2.91041,0 5.29166,-2.38126 5.29166,-5.29165 z m 16.93333,0 c 0,-2.91042 -2.38125,-5.29168 -5.29167,-5.29168 -2.91042,0 -5.29166,2.38126 -5.29166,5.29168 0,2.91041 2.38124,5.29165 5.29166,5.29165 2.91042,0 5.29167,-2.38126 5.29167,-5.29165 z"
       inkscape:connector-curvature="0"
       style="fill:#ffffff;stroke:#000000;stroke-width:0.26458332;stroke-opacity:1;fill-opacity:0.94117647" />
    <path
       style="fill:none;fill-opacity:1;stroke:#ffffff;stroke-width:3.5;stroke-miterlimit:4;stroke-dasharray:none;stroke-opacity:1"
       d="m -144.77404,-729.09043 c 62.263919,17.2828 119.630756,50.40952 166.12714,96.9059 47.327321,47.32732 80.80285,105.91709 97.81729,169.46994 m 0.0441,195.24464 C 102.21387,-203.85351 68.721377,-145.20328 21.353102,-97.835008 -25.175401,-51.306507 -82.589373,-18.16615 -144.90307,-0.89331344 M -340.10844,0.88025301 C -404.97789,-15.838 -464.82181,-49.660404 -512.99642,-97.835012 -560.49674,-145.33533 -594.04381,-204.18058 -610.99963,-268.00207 m 0.0519,-194.56981 c 34.97479,-131.22848 138.8148,-234.35808 270.45281,-268.32156"
       id="path866"
       inkscape:connector-curvature="0"
       sodipodi:nodetypes="csccsccsccc" />
    <path
       id="path822"
       d="m -301.60612,-6.54194 c 9.33979,0 16.93333,-7.59354 16.93333,-16.93333 0,-9.33979 -7.59354,-16.93333 -16.93333,-16.93333 -9.33979,0 -16.93333,7.59354 -16.93333,16.93333 0,9.33979 7.59354,16.93333 16.93333,16.93333 z m 118.53333,0 c 9.33979,0 16.93334,-7.59354 16.93334,-16.93333 0,-9.33979 -7.59355,-16.93333 -16.93334,-16.93333 -9.33979,0 -16.93333,7.59354 -16.93333,16.93333 0,9.33979 7.59354,16.93333 16.93333,16.93333 z m 8.46667,8.46667 h -16.93333 c -4.65667,0 -8.86355,1.87854 -11.93271,4.92125 10.66271,5.84729 18.22979,16.40417 19.87021,28.94542 h 17.4625 c 4.68312,0 8.46666,-3.78355 8.46666,-8.46667 v -8.46667 c 0,-9.33979 -7.59354,-16.93333 -16.93333,-16.93333 z m -67.73333,0 c 16.37771,0 29.63333,-13.25563 29.63333,-29.63333 0,-16.37771 -13.25562,-29.63334 -29.63333,-29.63334 -16.37771,0 -29.63334,13.25563 -29.63334,29.63334 0,16.3777 13.25563,29.63333 29.63334,29.63333 z m 20.32,8.46667 h -2.19604 c -5.50333,2.64583 -11.6152,4.23333 -18.12396,4.23333 -6.50875,0 -12.59417,-1.5875 -18.12396,-4.23333 h -2.19604 c -16.8275,0 -30.48,13.6525 -30.48,30.48 v 7.62 c 0,7.01146 5.68854,12.7 12.7,12.7 h 76.2 c 7.01145,0 12.7,-5.68854 12.7,-12.7 v -7.62 c 0,-16.8275 -13.6525,-30.48 -30.48,-30.48 z m -59.18729,-3.54542 c -3.06917,-3.04271 -7.27605,-4.92125 -11.93271,-4.92125 h -16.93334 c -9.33979,0 -16.93333,7.59354 -16.93333,16.93333 v 8.46667 c 0,4.68312 3.78354,8.46667 8.46667,8.46667 h 17.43604 c 1.66687,-12.54125 9.23396,-23.09813 19.89667,-28.94542 z"
       inkscape:connector-curvature="0"
       style="fill:#ffffff;stroke:#000000;stroke-width:0.26458332;stroke-opacity:1;fill-opacity:0.94117647" />
    <path
       id="path844"
       d="m -191.50352,-748.94374 -2.16958,3.78354 c -0.79375,1.40229 -2.48708,1.98438 -3.99521,1.42875 -3.12208,-1.16417 -5.97958,-2.83104 -8.49311,-4.92125 -1.2171,-1.00542 -1.5346,-2.77812 -0.74085,-4.15394 l 2.16959,-3.78355 c -1.82563,-2.11666 -3.25438,-4.57729 -4.20688,-7.24958 h -4.36562 c -1.5875,0 -2.96334,-1.13771 -3.22791,-2.72521 -0.52918,-3.17499 -0.55563,-6.50874 0,-9.81603 0.26457,-1.5875 1.64042,-2.75167 3.22791,-2.75167 h 4.36562 c 0.95251,-2.67229 2.38125,-5.1329 4.20688,-7.24957 l -2.16958,-3.78354 c -0.79376,-1.37583 -0.5027,-3.14854 0.74084,-4.15396 2.51354,-2.09021 5.39749,-3.75708 8.49312,-4.92125 1.50813,-0.55562 3.20146,0.0265 3.99521,1.42875 l 2.16958,3.78354 c 2.77812,-0.50271 5.60916,-0.50271 8.38729,0 l 2.16958,-3.78354 c 0.79375,-1.40229 2.48708,-1.98437 3.99521,-1.42875 3.12208,1.16417 5.97958,2.83104 8.49312,4.92125 1.21709,1.00542 1.53459,2.77813 0.74084,4.15396 l -2.16959,3.78354 c 1.82563,2.11667 3.25438,4.57728 4.20688,7.24957 h 4.36562 c 1.5875,0 2.96334,1.13771 3.22792,2.72521 0.52917,3.175 0.55562,6.50875 0,9.81603 -0.26458,1.5875 -1.64042,2.75167 -3.22792,2.75167 h -4.36562 c -0.9525,2.67229 -2.38125,5.13292 -4.20688,7.24958 l 2.16959,3.78355 c 0.79375,1.37582 0.5027,3.14852 -0.74084,4.15394 -2.51354,2.09021 -5.3975,3.75708 -8.49312,4.92125 -1.50813,0.55563 -3.20146,-0.0265 -3.99521,-1.42875 l -2.16958,-3.78354 c -2.75167,0.50271 -5.60917,0.50271 -8.3873,0 z m -2.77812,-15.55749 c 10.18646,7.83167 21.80167,-3.78353 13.97,-13.96999 -10.18646,-7.85811 -21.80167,3.78354 -13.97,13.96999 z m -30.50646,40.71937 8.91646,4.445 c 2.67229,1.53458 3.83646,4.78895 2.77812,7.69937 -2.35478,6.40292 -6.985,12.27666 -11.27125,17.40958 -1.9579,2.35479 -5.34458,2.93688 -8.01687,1.40229 l -7.69937,-4.445 c -4.23333,3.62479 -9.15459,6.50875 -14.52562,8.38729 v 8.89 c 0,3.06917 -2.19605,5.715 -5.2123,6.24417 -6.50876,1.11125 -13.33501,1.16417 -20.08188,0 -3.04271,-0.52917 -5.29167,-3.14854 -5.29167,-6.24417 v -8.89 c -5.37104,-1.905 -10.29229,-4.7625 -14.52561,-8.38729 l -7.69939,4.41854 c -2.64583,1.53459 -6.05896,0.9525 -8.01686,-1.40229 -4.28625,-5.13292 -8.81063,-11.00666 -11.16542,-17.38312 -1.05833,-2.88396 0.10582,-6.13833 2.77812,-7.69937 l 8.81062,-4.445 c -1.03186,-5.5298 -1.03186,-11.21834 0,-16.77459 l -8.81062,-4.47146 c -2.6723,-1.53458 -3.86292,-4.78896 -2.77812,-7.6729 2.35479,-6.40292 6.87917,-12.27667 11.16542,-17.40957 1.9579,-2.3548 5.34458,-2.93688 8.01686,-1.4023 l 7.69939,4.44499 c 4.23332,-3.62478 9.15457,-6.50874 14.52561,-8.38728 v -8.91645 c 0,-3.0427 2.16959,-5.68854 5.18584,-6.2177 6.50875,-1.11125 13.36145,-1.16417 20.10834,-0.0265 3.04271,0.52916 5.29167,3.14854 5.29167,6.24416 v 8.88999 c 5.37103,1.905 10.29229,4.7625 14.52562,8.38728 l 7.69937,-4.44499 c 2.64583,-1.53458 6.05897,-0.9525 8.01688,1.4023 4.28625,5.1329 8.78416,11.00665 11.13896,17.40957 1.05834,2.88394 0.0265,6.13832 -2.64584,7.69936 l -8.91645,4.445 c 1.03188,5.55625 1.03188,11.2448 0,16.80105 z m -31.11499,5.5827 c 15.66332,-20.37291 -7.59355,-43.62978 -27.96647,-27.96646 -15.66333,20.37292 7.59354,43.6298 27.96647,27.96646 z m 64.39957,48.33937 -2.16958,3.78355 c -0.79375,1.40229 -2.48708,1.98437 -3.99521,1.42875 -3.12208,-1.16417 -5.97958,-2.83105 -8.49311,-4.92125 -1.2171,-1.00542 -1.5346,-2.77813 -0.74085,-4.15396 l 2.16959,-3.78354 c -1.82563,-2.11667 -3.25438,-4.5773 -4.20688,-7.24959 h -4.36562 c -1.5875,0 -2.96334,-1.13771 -3.22791,-2.72521 -0.52918,-3.175 -0.55563,-6.50875 0,-9.81604 0.26457,-1.5875 1.64042,-2.75166 3.22791,-2.75166 h 4.36562 c 0.95251,-2.67229 2.38125,-5.13292 4.20688,-7.24958 l -2.16958,-3.78354 c -0.79376,-1.37584 -0.5027,-3.14855 0.74084,-4.15396 2.51354,-2.09021 5.39749,-3.75709 8.49312,-4.92125 1.50813,-0.55563 3.20146,0.0265 3.99521,1.42875 l 2.16958,3.78354 c 2.77812,-0.50271 5.60916,-0.50271 8.38729,0 l 2.16958,-3.78354 c 0.79375,-1.40229 2.48708,-1.98438 3.99521,-1.42875 3.12208,1.16416 5.97958,2.83104 8.49312,4.92125 1.21709,1.00541 1.53459,2.77812 0.74084,4.15396 l -2.16959,3.78354 c 1.82563,2.11666 3.25438,4.57729 4.20688,7.24958 h 4.36562 c 1.5875,0 2.96334,1.1377 3.22792,2.7252 0.52917,3.175 0.55562,6.50875 0,9.81605 -0.26458,1.5875 -1.64042,2.75166 -3.22792,2.75166 h -4.36562 c -0.9525,2.67229 -2.38125,5.13292 -4.20688,7.24959 l 2.16959,3.78354 c 0.79375,1.37583 0.5027,3.14854 -0.74084,4.15396 -2.51354,2.0902 -5.3975,3.75708 -8.49312,4.92125 -1.50813,0.55562 -3.20146,-0.0265 -3.99521,-1.42875 l -2.16958,-3.78355 c -2.75167,0.50271 -5.60917,0.50271 -8.3873,0 z m -2.77812,-15.58395 c 10.18646,7.83166 21.80167,-3.78355 13.97,-13.97 -10.18646,-7.83167 -21.80167,3.78354 -13.97,13.97 z"
       inkscape:connector-curvature="0"
       style="fill:#ffffff;stroke:none;stroke-width:3.33100009;stroke-miterlimit:4;stroke-dasharray:none;stroke-opacity:1;fill-opacity:0.94117647" />
    <g
       id="g861"
       transform="matrix(1.5964913,0,0,1.5964913,194.84335,185.22204)">
      <rect
         ry="16.603743"
         y="-387.14728"
         x="-419.38565"
         height="84.997246"
         width="286.6402"
         id="rect7659"
         style="fill:#007bff;fill-opacity:1;stroke:none;stroke-width:2.24199891;stroke-miterlimit:4;stroke-dasharray:none;stroke-opacity:1" />
      <text
         id="text7508"
         y="-325.72217"
         x="-385.63251"
         style="font-style:normal;font-variant:normal;font-weight:300;font-stretch:normal;font-size:52.91666794px;line-height:1.25;font-family:'Open Sans';-inkscape-font-specification:'Open Sans, Light';font-variant-ligatures:normal;font-variant-caps:normal;font-variant-numeric:normal;font-feature-settings:normal;text-align:start;letter-spacing:0px;word-spacing:0px;writing-mode:lr-tb;text-anchor:start;fill:#ffffff;fill-opacity:1;stroke:none;stroke-width:2.41904759"
         xml:space="preserve"><tspan
           style="font-style:normal;font-variant:normal;font-weight:300;font-stretch:normal;font-size:52.91666794px;font-family:'Open Sans';-inkscape-font-specification:'Open Sans, Light';font-variant-ligatures:normal;font-variant-caps:normal;font-variant-numeric:normal;font-feature-settings:normal;text-align:start;writing-mode:lr-tb;text-anchor:start;fill:#ffffff;stroke-width:2.41904759"
           y="-325.72217"
           x="-385.63251"
           id="tspan7506"
           sodipodi:role="line">EXPLORE</tspan></text>
    </g>
    <path
       id="path833-4"
       d="m 288.11396,-395.91203 v -35.98334 h -52.9167 c -3.51896,0 -6.35,2.83107 -6.35,6.35 v 122.76674 c 0,3.51893 2.83104,6.35 6.35,6.35 h 88.90005 c 3.51897,0 6.35001,-2.83107 6.35001,-6.35 v -86.78338 h -35.98336 c -3.4925,0 -6.35,-2.8575 -6.35,-6.35002 z m 17.24555,57.15266 h -17.24555 v 21.1667 c 0,2.33892 -1.89442,4.23334 -4.23333,4.23334 h -8.46668 c -2.33892,0 -4.23333,-1.89442 -4.23333,-4.23334 v -21.1667 h -17.24556 c -3.77825,0 -5.66473,-4.57462 -2.98185,-7.23897 l 25.51113,-25.32065 c 1.75948,-1.74889 4.60112,-1.74889 6.3606,0 l 25.51113,25.32065 c 2.68552,2.66435 0.80169,7.23897 -2.97656,7.23897 z m 23.23573,-65.35475 -25.90273,-25.92916 c -1.19062,-1.19063 -2.80458,-1.85209 -4.49792,-1.85209 h -1.61395 v 33.8667 h 33.86668 v -1.61396 c 0,-1.66688 -0.66146,-3.28086 -1.85208,-4.47149 z"
       inkscape:connector-curvature="0"
       style="fill:#0069d9;fill-opacity:1;stroke:#000000;stroke-width:0.26458332;stroke-opacity:1" />
    <path
       id="path855-3"
       d="m 1006.4152,-431.89534 h 21.1668 c 3.519,0 6.35,2.83104 6.35,6.35 v 44.45 h 23.2041 c 4.7096,0 7.0644,5.68854 3.7307,9.02229 l -40.2434,40.26961 c -1.9844,1.98438 -5.2388,1.98438 -7.2231,0 l -40.2961,-40.26961 c -3.33375,-3.33375 -0.97896,-9.02229 3.73062,-9.02229 h 23.23038 v -44.45 c 0,-3.51896 2.831,-6.35 6.35,-6.35 z m 78.3171,99.48334 v 29.63334 c 0,3.51896 -2.831,6.35003 -6.35,6.35003 H 955.61524 c -3.51896,0 -6.35,-2.83107 -6.35,-6.35003 V -332.412 c 0,-3.51895 2.83104,-6.35001 6.35,-6.35001 h 38.81437 l 12.96459,12.96459 c 5.3181,5.31812 13.8907,5.31812 19.2089,0 l 12.9646,-12.96459 h 38.8146 c 3.519,0 6.35,2.83101 6.35,6.35001 z m -32.8085,23.28337 c 0,-2.91043 -2.3813,-5.29171 -5.2917,-5.29171 -2.9104,0 -5.2917,2.38128 -5.2917,5.29171 0,2.91041 2.3813,5.29164 5.2917,5.29164 2.9104,0 5.2917,-2.38125 5.2917,-5.29164 z m 16.9334,0 c 0,-2.91043 -2.3812,-5.29171 -5.2917,-5.29171 -2.9104,0 -5.2917,2.38128 -5.2917,5.29171 0,2.91041 2.3813,5.29164 5.2917,5.29164 2.9105,0 5.2917,-2.38125 5.2917,-5.29164 z"
       inkscape:connector-curvature="0"
       style="fill:#0069d9;fill-opacity:1;stroke:#000000;stroke-width:0.26458332;stroke-opacity:1" />
    <path
       style="fill:none;fill-opacity:1;stroke:#0069d9;stroke-width:3.5;stroke-miterlimit:4;stroke-dasharray:none;stroke-opacity:1"
       d="m 747.62948,-728.24269 c 62.26392,17.2828 119.63075,50.40952 166.12714,96.9059 47.32732,47.32732 80.80285,105.91709 97.81728,169.46995 m 0.044,195.2447 c -17.00063,63.61649 -50.49312,122.26672 -97.86139,169.634986 C 867.228,-50.458661 809.81402,-17.318319 747.50033,-0.04551237 M 552.29505,1.7280676 C 487.42561,-14.990172 427.5817,-48.812561 379.40706,-96.987154 331.90672,-144.48747 298.35963,-203.33273 281.4038,-267.15427 m 0.0519,-194.56988 c 34.97481,-131.22847 138.81487,-234.35807 270.45289,-268.32155"
       id="path866-1"
       inkscape:connector-curvature="0"
       sodipodi:nodetypes="csccsccsccc" />
    <path
       id="path822-4"
       d="m 590.79739,-5.694129 c 9.33979,0 16.93333,-7.593533 16.93333,-16.933317 0,-9.339788 -7.59354,-16.933331 -16.93333,-16.933331 -9.33979,0 -16.93334,7.593543 -16.93334,16.933331 0,9.339784 7.59355,16.933317 16.93334,16.933317 z m 118.53333,0 c 9.33979,0 16.93333,-7.593533 16.93333,-16.933317 0,-9.339788 -7.59354,-16.933331 -16.93333,-16.933331 -9.33979,0 -16.93333,7.593543 -16.93333,16.933331 0,9.339784 7.59354,16.933317 16.93333,16.933317 z m 8.46667,8.4666666 h -16.93334 c -4.65666,0 -8.86354,1.87854 -11.9327,4.9212467 10.6627,5.8472867 18.22979,16.4041507 19.8702,28.9453917 h 17.4625 c 4.68313,0 8.46667,-3.783537 8.46667,-8.466654 v -8.466664 c 0,-9.339787 -7.59354,-16.9333204 -16.93333,-16.9333204 z m -67.73334,0 c 16.37771,0 29.63334,-13.2556236 29.63334,-29.6333246 0,-16.377687 -13.25563,-29.633311 -29.63334,-29.633311 -16.3777,0 -29.63333,13.255624 -29.63333,29.633311 0,16.377701 13.25563,29.6333246 29.63333,29.6333246 z m 20.32,8.4666534 h -2.19604 c -5.50333,2.64584 -11.61521,4.233337 -18.12396,4.233337 -6.50875,0 -12.59416,-1.587497 -18.12395,-4.233337 h -2.19605 c -16.8275,0 -30.48,13.652494 -30.48,30.479985 v 7.619994 c 0,7.011457 5.68855,12.699994 12.7,12.699994 h 76.2 c 7.01146,0 12.7,-5.688537 12.7,-12.699994 v -7.619994 c 0,-16.827491 -13.6525,-30.479985 -30.48,-30.479985 z M 611.19676,7.6937843 C 608.1276,4.6510776 603.92072,2.7725376 599.26405,2.7725376 h -16.93333 c -9.33979,0 -16.93333,7.5935334 -16.93333,16.9333204 v 8.466664 c 0,4.683117 3.78354,8.466654 8.46666,8.466654 h 17.43605 c 1.66687,-12.541241 9.23395,-23.098105 19.89666,-28.9453917 z"
       inkscape:connector-curvature="0"
       style="fill:#0069d9;fill-opacity:1;stroke:#000000;stroke-width:0.26458332;stroke-opacity:1" />
    <path
       id="path844-6"
       d="m 700.89999,-748.096 -2.16959,3.78354 c -0.79375,1.40229 -2.48708,1.98438 -3.99521,1.42875 -3.12208,-1.16417 -5.97958,-2.83104 -8.4931,-4.92125 -1.2171,-1.00542 -1.5346,-2.77812 -0.74085,-4.15394 l 2.16958,-3.78355 c -1.82563,-2.11666 -3.25438,-4.57729 -4.20688,-7.24958 h -4.36562 c -1.5875,0 -2.96333,-1.13771 -3.22789,-2.72521 -0.52919,-3.17499 -0.55565,-6.50874 0,-9.81603 0.26456,-1.5875 1.64041,-2.75167 3.22789,-2.75167 h 4.36562 c 0.9525,-2.67229 2.38125,-5.1329 4.20688,-7.24957 l -2.16958,-3.78354 c -0.79375,-1.37583 -0.50269,-3.14854 0.74085,-4.15396 2.51355,-2.09021 5.39748,-3.75708 8.4931,-4.92125 1.50815,-0.55562 3.20149,0.0265 3.99524,1.42875 l 2.16956,3.78354 c 2.77812,-0.50271 5.60916,-0.50271 8.38729,0 l 2.16958,-3.78354 c 0.79375,-1.40229 2.48708,-1.98437 3.99521,-1.42875 3.12208,1.16417 5.97958,2.83104 8.49312,4.92125 1.21709,1.00542 1.53459,2.77813 0.74084,4.15396 l -2.16959,3.78354 c 1.82563,2.11667 3.25438,4.57728 4.20688,7.24957 h 4.36562 c 1.5875,0 2.96334,1.13771 3.22792,2.72521 0.52917,3.175 0.55563,6.50875 0,9.81603 -0.26458,1.5875 -1.64042,2.75167 -3.22792,2.75167 h -4.36562 c -0.9525,2.67229 -2.38125,5.13292 -4.20688,7.24958 l 2.16959,3.78355 c 0.79375,1.37582 0.50271,3.14852 -0.74084,4.15394 -2.51354,2.09021 -5.3975,3.75708 -8.49312,4.92125 -1.50813,0.55563 -3.20146,-0.0265 -3.99521,-1.42875 l -2.16958,-3.78354 c -2.75167,0.50271 -5.60917,0.50271 -8.38729,0 z m -2.77813,-15.55749 c 10.18646,7.83167 21.80167,-3.78353 13.97,-13.96999 -10.18646,-7.85811 -21.80167,3.78354 -13.97,13.96999 z m -30.50646,40.71937 8.91646,4.445 c 2.67229,1.53458 3.83646,4.78895 2.77813,7.69937 -2.3548,6.40292 -6.985,12.27666 -11.27125,17.40958 -1.9579,2.35479 -5.34459,2.93688 -8.01688,1.40229 l -7.69937,-4.445 c -4.23331,3.62479 -9.15459,6.50875 -14.5256,8.38729 v 8.89 c 0,3.06917 -2.19607,5.715 -5.21232,6.24417 -6.50875,1.11125 -13.335,1.16417 -20.08188,0 -3.0427,-0.52917 -5.29166,-3.14854 -5.29166,-6.24417 v -8.89 c -5.37104,-1.905 -10.29229,-4.7625 -14.5256,-8.38729 l -7.6994,4.41854 c -2.64584,1.53459 -6.05896,0.9525 -8.01685,-1.40229 -4.28625,-5.13292 -8.81065,-11.00666 -11.16544,-17.38312 -1.05831,-2.88396 0.10583,-6.13833 2.77812,-7.69937 l 8.81063,-4.445 c -1.03185,-5.5298 -1.03185,-11.21834 0,-16.77459 l -8.81063,-4.47146 c -2.67229,-1.53458 -3.86292,-4.78896 -2.77812,-7.6729 2.35479,-6.40292 6.87919,-12.27667 11.16544,-17.40957 1.95789,-2.3548 5.34456,-2.93688 8.01685,-1.4023 l 7.6994,4.44499 c 4.23331,-3.62478 9.15456,-6.50874 14.5256,-8.38728 v -8.91645 c 0,-3.0427 2.16958,-5.68854 5.18583,-6.2177 6.50875,-1.11125 13.36146,-1.16417 20.10833,-0.0265 3.04274,0.52916 5.2917,3.14854 5.2917,6.24416 v 8.88999 c 5.37101,1.905 10.29229,4.7625 14.5256,8.38728 l 7.69937,-4.44499 c 2.64583,-1.53458 6.05898,-0.9525 8.01688,1.4023 4.28625,5.1329 8.78416,11.00665 11.13895,17.40957 1.05836,2.88394 0.0265,6.13832 -2.64583,7.69936 l -8.91643,4.445 c 1.03187,5.55625 1.03187,11.2448 0,16.80105 z m -31.11497,5.5827 c 15.66331,-20.37291 -7.59357,-43.62978 -27.96649,-27.96646 -15.66333,20.37292 7.59355,43.6298 27.96649,27.96646 z m 64.39956,48.33937 -2.16959,3.78355 c -0.79375,1.40229 -2.48708,1.98437 -3.99521,1.42875 -3.12208,-1.16417 -5.97958,-2.83105 -8.4931,-4.92125 -1.2171,-1.00542 -1.5346,-2.77813 -0.74085,-4.15396 l 2.16958,-3.78354 c -1.82563,-2.11667 -3.25438,-4.5773 -4.20688,-7.24959 h -4.36562 c -1.5875,0 -2.96333,-1.13771 -3.22789,-2.72521 -0.52919,-3.175 -0.55565,-6.50875 0,-9.81604 0.26456,-1.5875 1.64041,-2.75166 3.22789,-2.75166 h 4.36562 c 0.9525,-2.67229 2.38125,-5.13292 4.20688,-7.24958 l -2.16958,-3.78354 c -0.79375,-1.37584 -0.50269,-3.14855 0.74085,-4.15396 2.51355,-2.09021 5.39748,-3.75709 8.4931,-4.92125 1.50815,-0.55563 3.20149,0.0265 3.99524,1.42875 l 2.16956,3.78354 c 2.77812,-0.50271 5.60916,-0.50271 8.38729,0 l 2.16958,-3.78354 c 0.79375,-1.40229 2.48708,-1.98438 3.99521,-1.42875 3.12208,1.16416 5.97958,2.83104 8.49312,4.92125 1.21709,1.00541 1.53459,2.77812 0.74084,4.15396 l -2.16959,3.78354 c 1.82563,2.11666 3.25438,4.57729 4.20688,7.24958 h 4.36562 c 1.5875,0 2.96334,1.1377 3.22792,2.7252 0.52917,3.175 0.55563,6.50875 0,9.81605 -0.26458,1.5875 -1.64042,2.75166 -3.22792,2.75166 h -4.36562 c -0.9525,2.67229 -2.38125,5.13292 -4.20688,7.24959 l 2.16959,3.78354 c 0.79375,1.37583 0.50271,3.14854 -0.74084,4.15396 -2.51354,2.0902 -5.3975,3.75708 -8.49312,4.92125 -1.50813,0.55562 -3.20146,-0.0265 -3.99521,-1.42875 l -2.16958,-3.78355 c -2.75167,0.50271 -5.60917,0.50271 -8.38729,0 z m -2.77813,-15.58395 c 10.18646,7.83166 21.80167,-3.78355 13.97,-13.97 -10.18646,-7.83167 -21.80167,3.78354 -13.97,13.97 z"
       inkscape:connector-curvature="0"
       style="fill:#0069d9;fill-opacity:1;stroke:none;stroke-width:3.33100033;stroke-miterlimit:4;stroke-dasharray:none;stroke-opacity:1" />
    <rect
       style="fill:#0069d9;fill-opacity:1;stroke:none;stroke-width:2.24199891;stroke-miterlimit:4;stroke-dasharray:none;stroke-opacity:1"
       id="rect7659-9"
       width="286.6402"
       height="84.997253"
       x="503.18988"
       y="-406.66031"
       ry="16.603743" />
    <text
       xml:space="preserve"
       style="font-style:normal;font-variant:normal;font-weight:300;font-stretch:normal;font-size:52.91666794px;line-height:1.25;font-family:'Open Sans';-inkscape-font-specification:'Open Sans, Light';font-variant-ligatures:normal;font-variant-caps:normal;font-variant-numeric:normal;font-feature-settings:normal;text-align:start;letter-spacing:0px;word-spacing:0px;writing-mode:lr-tb;text-anchor:start;fill:#ffffff;fill-opacity:1;stroke:none;stroke-width:2.41904783"
       x="536.94305"
       y="-345.23529"
       id="text7508-4"><tspan
         sodipodi:role="line"
         id="tspan7506-2"
         x="536.94305"
         y="-345.23529"
         style="font-style:normal;font-variant:normal;font-weight:300;font-stretch:normal;font-size:52.91666794px;font-family:'Open Sans';-inkscape-font-specification:'Open Sans, Light';font-variant-ligatures:normal;font-variant-caps:normal;font-variant-numeric:normal;font-feature-settings:normal;text-align:start;writing-mode:lr-tb;text-anchor:start;fill:#ffffff;stroke-width:2.41904783">EXPLORE</tspan></text>
  </g>
</svg>
